<?xml version="1.0" encoding="UTF-8" standalone="no"?>
<svg
   xmlns:dc="http://purl.org/dc/elements/1.1/"
   xmlns:cc="http://creativecommons.org/ns#"
   xmlns:rdf="http://www.w3.org/1999/02/22-rdf-syntax-ns#"
   xmlns:svg="http://www.w3.org/2000/svg"
   xmlns="http://www.w3.org/2000/svg"
   xmlns:sodipodi="http://sodipodi.sourceforge.net/DTD/sodipodi-0.dtd"
   xmlns:inkscape="http://www.inkscape.org/namespaces/inkscape"
   height="512"
   viewBox="0 0 383.99999 383.99999"
   width="512"
   version="1.1"
   id="svg907"
   sodipodi:docname="network.svg"
   inkscape:version="1.0.1 (3bc2e813f5, 2020-09-07)">
  <metadata
     id="metadata913">
    <rdf:RDF>
      <cc:Work
         rdf:about="">
        <dc:format>image/svg+xml</dc:format>
        <dc:type
           rdf:resource="http://purl.org/dc/dcmitype/StillImage" />
        <dc:title></dc:title>
      </cc:Work>
    </rdf:RDF>
  </metadata>
  <defs
     id="defs911" />
  <sodipodi:namedview
     pagecolor="#ffffff"
     bordercolor="#666666"
     borderopacity="1"
     objecttolerance="10"
     gridtolerance="10"
     guidetolerance="10"
     inkscape:pageopacity="0"
     inkscape:pageshadow="2"
     inkscape:window-width="1364"
     inkscape:window-height="748"
     id="namedview909"
     showgrid="false"
     units="px"
     inkscape:zoom="0.21734651"
     inkscape:cx="280.17323"
     inkscape:cy="71.711366"
     inkscape:window-x="0"
     inkscape:window-y="18"
     inkscape:window-maximized="0"
     inkscape:current-layer="svg907" />
  <g
     id="g921"
     transform="matrix(0.38709676,0,0,0.38709676,95.999999,95.999999)"
     style="fill:#ffffff">
    <path
       d="m 48,160 h 32 v 16 H 48 Z m 0,0"
       id="path895"
       style="fill:#ffffff" />
    <path
       d="m 472,128 c 13.23047,0 24,-10.76953 24,-24 V 24 C 496,10.769531 485.23047,0 472,0 H 360 c -13.23047,0 -24,10.769531 -24,24 v 80 c 0,13.23047 10.76953,24 24,24 h 24 v 16 h -16 v 16 h 40 v 80 h -33.01563 c -6.38281,-6.23047 -14.24218,-11 -23.03906,-13.625 0.0391,-0.80859 0.0547,-1.58984 0.0547,-2.375 0,-35.28906 -28.71094,-64 -64,-64 -21.89453,0 -42.24609,11.39062 -53.90234,29.60937 C 225.88672,185.92187 217.00781,184 208,184 c -26.55078,0 -50.45703,16.73437 -59.80859,41.28125 -6.07813,1.30469 -11.74219,3.64062 -16.88672,6.71875 H 72 v -24 h 32 c 13.23047,0 24,-10.76953 24,-24 V 24 C 128,10.769531 117.23047,0 104,0 H 24 C 10.769531,0 0,10.769531 0,24 v 160 c 0,13.23047 10.769531,24 24,24 h 32 v 40 h 58.28906 c -3.40234,4.85547 -6.04297,10.21484 -7.77734,16 H 72 v 88 H 40 c -13.230469,0 -24,10.76953 -24,24 v 72 H 0 v 24 c 0,13.23047 10.769531,24 24,24 h 128 c 13.23047,0 24,-10.76953 24,-24 v -24 h -16 v -72 c 0,-13.23047 -10.76953,-24 -24,-24 H 88 v -72 h 16 c 0,30.87109 25.12891,56 56,56 h 176 c 28.15234,0 51.45703,-20.91016 55.35937,-48 H 424 v 64 H 368 V 496 H 496 V 352 h -56 v -80 h -48.67188 c -0.83203,-5.63281 -2.55859,-10.99219 -4.97656,-16 H 424 v -96 h 40 v -16 h -16 v -16 z m -360,0 H 16 V 48 h 96 z M 24,16 h 80 c 4.41406,0 8,3.585938 8,8 v 8 H 16 v -8 c 0,-4.414062 3.585938,-8 8,-8 z m -8,168 v -40 h 96 v 40 c 0,4.41406 -3.58594,8 -8,8 H 24 c -4.414062,0 -8,-3.58594 -8,-8 z m 144,288 c 0,4.41406 -3.58594,8 -8,8 H 24 c -4.414062,0 -8,-3.58594 -8,-8 v -8 h 144 z m -16,-96 v 72 H 32 v -72 c 0,-4.41406 3.585938,-8 8,-8 h 96 c 4.41406,0 8,3.58594 8,8 z m 240,104 v -48 h 96 v 48 z m 96,-64 h -96 v -48 h 96 z M 336,320 H 160 c -22.05469,0 -40,-17.94531 -40,-40 0,-20.22266 15.13672,-37.28125 35.19922,-39.67969 l 5.25,-0.63281 1.48047,-5.07813 C 167.84766,214.23047 186.80078,200 208,200 c 8.83203,0 17.50391,2.48047 25.10547,7.16016 l 7.63672,4.71093 3.80859,-8.13672 C 252.42578,186.87891 269.48047,176 288,176 c 26.47266,0 48,21.52734 48,48 0,2.20703 -0.19922,4.55859 -0.63281,7.39844 l -1.20703,7.91406 7.91015,1.19922 C 361.41406,243.46484 376,260.44141 376,280 c 0,22.05469 -17.94531,40 -40,40 z M 360,16 h 112 c 4.41406,0 8,3.585938 8,8 V 80 H 352 V 24 c 0,-4.414062 3.58594,-8 8,-8 z m -8,88 v -8 h 128 v 8 c 0,4.41406 -3.58594,8 -8,8 H 360 c -4.41406,0 -8,-3.58594 -8,-8 z m 80,40 h -32 v -16 h 32 z m 0,0"
       id="path897"
       style="fill:#ffffff" />
    <path
       d="m 400,384 h 16 v 16 h -16 z m 0,0"
       id="path899"
       style="fill:#ffffff" />
    <path
       d="m 448,448 h 16 v 16 h -16 z m 0,0"
       id="path901"
       style="fill:#ffffff" />
    <path
       d="m 432,384 h 32 v 16 h -32 z m 0,0"
       id="path903"
       style="fill:#ffffff" />
    <path
       d="m 400,448 h 32 v 16 h -32 z m 0,0"
       id="path905"
       style="fill:#ffffff" />
  </g>
</svg>
