<?xml version="1.0" encoding="UTF-8" standalone="no"?>
<svg
   xmlns:dc="http://purl.org/dc/elements/1.1/"
   xmlns:cc="http://creativecommons.org/ns#"
   xmlns:rdf="http://www.w3.org/1999/02/22-rdf-syntax-ns#"
   xmlns:svg="http://www.w3.org/2000/svg"
   xmlns="http://www.w3.org/2000/svg"
   xmlns:sodipodi="http://sodipodi.sourceforge.net/DTD/sodipodi-0.dtd"
   xmlns:inkscape="http://www.inkscape.org/namespaces/inkscape"
   version="1.1"
   x="0px"
   y="0px"
   viewBox="0 0 1000 1000"
   enable-background="new 0 0 1000 1000"
   xml:space="preserve"
   id="svg975"
   sodipodi:docname="usb.svg"
   inkscape:version="1.0.1 (3bc2e813f5, 2020-09-07)"
   inkscape:export-filename="/home/jaime/Pictures/Icons/usb.png"
   inkscape:export-xdpi="49.151997"
   inkscape:export-ydpi="49.151997"><defs
   id="defs979" /><sodipodi:namedview
   pagecolor="#ffffff"
   bordercolor="#666666"
   borderopacity="1"
   objecttolerance="10"
   gridtolerance="10"
   guidetolerance="10"
   inkscape:pageopacity="0"
   inkscape:pageshadow="2"
   inkscape:window-width="1898"
   inkscape:window-height="1034"
   id="namedview977"
   showgrid="false"
   inkscape:zoom="0.4295"
   inkscape:cx="617.99241"
   inkscape:cy="568.76891"
   inkscape:window-x="10"
   inkscape:window-y="34"
   inkscape:window-maximized="1"
   inkscape:current-layer="svg975"
   inkscape:document-rotation="0" />
<metadata
   id="metadata961"> Svg Vector Icons : http://www.onlinewebfonts.com/icon <rdf:RDF><cc:Work
     rdf:about=""><dc:format>image/svg+xml</dc:format><dc:type
       rdf:resource="http://purl.org/dc/dcmitype/StillImage" /><dc:title></dc:title></cc:Work></rdf:RDF></metadata>
<g
   id="g889"
   transform="translate(222.2294,222.34015)"
   style="fill:#ffffff"><path
     d="M 92.768877,10.966867 C 74.013907,15.262149 56.515825,26.158831 39.230868,44.181527 25.612748,58.433556 17.01672,72.155506 12.409948,87.035979 10.420785,93.429719 10,97.200387 10,106.94401 c 0.10383,10.68902 0.420785,13.09897 3.246053,21.06109 5.44834,15.29579 9.322838,19.90803 56.893356,67.47308 l 44.111341,44.00751 18.75497,-18.75497 18.75497,-18.65114 0.42079,-9.11518 c 0.73227,-13.09897 3.66683,-19.90803 12.2574,-28.49859 8.59056,-8.59056 15.39962,-11.52513 28.49859,-12.2574 l 9.11518,-0.42078 18.65114,-18.75498 18.75497,-18.75497 -44.01298,-44.116803 C 147.88073,22.595823 143.16466,18.612031 128.07653,13.371351 117.28914,9.7099781 102.72562,8.6607489 92.768877,10.966867 Z"
     id="path963"
     style="fill:#ffffff;stroke-width:0.0546474" /><path
     d="m 195.13429,195.25959 -55.74029,55.7403 48.40662,48.40662 48.40662,48.40663 -3.35534,3.563 -3.35535,3.45918 88.84566,88.53417 c 66.84464,66.84464 90.31568,89.57794 95.03174,92.40867 3.45918,1.98917 10.06058,5.02756 14.66735,6.6014 11.52513,3.9838 28.60243,4.29529 40.33521,0.62845 31.43316,-9.74362 64.85548,-43.16594 74.5991,-74.5991 3.66684,-11.73279 3.35535,-28.81008 -0.62844,-40.33521 -1.57385,-4.61224 -4.61224,-11.20817 -6.6014,-14.66735 -2.83074,-4.71606 -25.56403,-28.1871 -92.40867,-95.03174 l -88.52871,-88.85113 -3.45918,3.34988 -3.56301,3.34989 L 299.37958,187.81662 250.97296,139.41 Z m 98.06468,10.48136 42.11671,42.11672 -43.79439,43.79438 -43.69055,43.69056 -42.43367,-42.43367 -42.43367,-42.43366 43.4829,-43.4829 c 23.88635,-23.88636 43.69055,-43.4829 44.00204,-43.4829 0.31149,0 19.49271,18.9681 42.75063,42.23147 z m 106.03225,132.22473 -2.51378,2.61761 9.11518,9.32284 c 5.02756,5.13139 9.11518,9.95128 9.11518,10.68902 0,0.83611 -1.04923,9.84745 -2.30612,20.11569 l -2.30612,18.65114 16.55268,16.55269 16.55269,16.55268 7.12601,-0.52462 c 5.97296,-0.42078 7.96212,-0.10383 12.04974,1.88534 15.61275,7.54133 14.98431,30.59158 -1.04923,37.82143 -15.92423,7.22984 -33.62998,-7.54134 -29.12703,-24.41097 1.04922,-3.77067 0.93993,-3.8745 -5.34452,-10.16441 l -6.38827,-6.38828 -19.06646,2.40995 c -11.94591,1.57385 -19.90803,2.093 -21.47641,1.57385 -1.25689,-0.52462 -6.39374,-4.8199 -11.31747,-9.6398 -8.16978,-7.96212 -9.32283,-8.79822 -13.83124,-9.32283 -6.38828,-0.62845 -10.68902,-3.8745 -12.98968,-9.6398 -2.30611,-6.18061 -0.84157,-11.52512 4.29529,-16.13736 4.71606,-4.08762 9.32283,-4.92373 14.9843,-2.72144 5.55217,2.30612 8.80369,6.70523 9.43213,13.09897 0.42079,4.60677 1.04923,5.656 7.96212,12.36123 l 7.4375,7.33368 9.6398,-1.25689 c 5.34451,-0.73228 9.95128,-1.46455 10.1644,-1.78151 0.31696,-0.31695 -16.34502,-17.49808 -37.08915,-38.13838 l -37.72307,-37.61377 -3.45918,3.35534 -3.563,3.45918 -2.83074,-14.24656 c -1.46454,-7.85829 -2.72143,-14.56352 -2.72143,-15.08814 0,-0.73227 24.20331,3.34989 28.18164,4.71607 1.15305,0.31695 0.62844,1.36072 -1.78151,3.8745 l -3.34988,3.45917 27.66249,27.5532 27.55319,27.44936 1.25689,-10.1644 1.25689,-10.26824 -6.80906,-6.80906 -6.80906,-6.80906 -2.72144,2.51378 -2.72144,2.51378 -10.37206,-10.37207 -10.48683,-10.48136 10.68902,-10.68903 10.79285,-10.79285 10.37207,10.4759 10.4759,10.37207 z"
     id="path965"
     style="fill:#ffffff;stroke-width:0.0546474" /><path
     d="m 262.18659,221.45753 c -5.86912,5.86913 -10.68902,11.20817 -10.68902,11.73279 0,0.62844 4.92373,5.97295 11.00051,12.04974 l 11.00052,11.00051 11.52512,-11.52512 11.52513,-11.52513 -11.20817,-11.20817 c -6.18062,-6.28445 -11.52513,-11.31747 -11.83662,-11.31747 -0.31695,0 -5.34451,4.8199 -11.31747,10.79285 z"
     id="path967"
     style="fill:#ffffff;stroke-width:0.0546474" /><path
     d="m 221.11911,262.52502 -11.00051,11.00051 11.52512,11.52512 11.52513,11.52513 11.52513,-11.52513 11.52512,-11.52512 -11.00051,-11.00051 c -6.07678,-6.07679 -11.42129,-11.00052 -12.04974,-11.00052 -0.62844,0 -5.97295,4.92373 -12.04974,11.00052 z"
     id="path969"
     style="fill:#ffffff;stroke-width:0.0546474" /></g>
</svg>
